…
    ## # A tibble: 2 x 2
    ##   GENDER     n
    ##   <chr>  <int>
    ## 1 F        166
    ## 2 M        211

``` r
wh_pay %>% 
  group_by(TITLE) %>% 
  summarize(n = n()) %>% 
  arrange(desc(n))
```

    ## # A tibble: 68 x 2
    ##    TITLE                                  n
    ##    <chr>                              <int>
    ##  1 SPECIAL ASSISTANT TO THE PRESIDENT    77
    ##  2 DEPUTY ASSISTANT TO THE PRESIDENT     28
    ##  3 ASSISTANT TO THE PRESIDENT            26
    ##  4 DIRECTOR                              24
    ##  5 EXECUTIVE ASSISTANT                   20
    ##  6 ASSOCIATE DIRECTOR                    18
    ##  7 STAFF ASSISTANT                       18
    ##  8 ASSOCIATE COUNSEL TO THE PRESIDENT    13
    ##  9 INFORMATION SERVICES OPERATOR         12
    ## 10 DEPUTY DIRECTOR                       11
    ## # ... with 58 more rows
…
